உங்கள் முகவரியிலிருந்து ஒரு செய்தியைப் பெற்றுள்ளோம் <$ sender_email> ஒரு கோருகிறது
 $ பட்டியல் பெயர் அஞ்சல் பட்டியலிலிருந்து தானியங்கி பதில்.

 இன்று நாம் பார்த்த எண்: $ எண்ணிக்கை. போன்ற சிக்கல்களைத் தவிர்ப்பதற்காக
 மின்னஞ்சல் ரோபோக்களுக்கு இடையில் அஞ்சல் சுழல்கள், நாங்கள் உங்களுக்கு மேலும் அனுப்ப மாட்டோம்
 இன்று பதில்கள். நாளை மீண்டும் முயற்சிக்கவும்.

 இந்த செய்தி பிழையாக இருப்பதாக நீங்கள் நம்பினால், அல்லது உங்களுக்கு ஏதேனும் கேள்விகள் இருந்தால், தயவுசெய்து
 பட்டியல் உரிமையாளரை $ உரிமையாளர்_மெயில் தொடர்பு கொள்ளவும்.
